{
  "kbz": {
    "url": [
      "static_url",
      "precreate__url"
    ],
    "only": [
      "app_id",
      "merch_code",
      "key"
    ],
    "h5": [
      "app_id",
      "merch_code",
      "key"
    ],
    "h5_url": [
      "static_url",
      "precreate__url",
      "query_cust_info_url"
    ]
  },
  "one": {
    "only": [
      "user_id",
      "channel",
      "secret_key"
    ],
    "h5": [
      "user_id",
      "channel",
      "secret_key"
    ],
    "url": [
      "verify_phone_url",
      "direct_payment_url",
      "call_back_url",
      "version",
      "expire_second",
      "remark"
    ],
    "h5_url": [
      "verify_phone_url",
      "direct_payment_url",
      "call_back_url",
      "version",
      "expire_second",
      "remark"
    ]
  },
  "mytel": {
    "only": [
      "service_id",
      "service_code",
      "secret_key",
      "public_key"
    ],
    "h5": [
      "secretKey",
      "serviceCode",
      "serviceID",
      "partnerCode",
      "partnerId"
    ],
    "url": [
      "redirect_url"
    ],
    "h5_url": [
      "request_url"
    ]
  },
  "saisai": {
    "only": [
      "Channel",
      "MerchantUserId",
      "secretKey"
    ],
    "url": [
      "check_phone",
      "payment_enquiry_url",
      "callback_url"
    ],
    "h5": [
      "Channel",
      "MerchantUserId",
      "secretKey"
    ],
    "h5_url": [
      "check_phone",
      "payment_enquiry_url",
      "callback_url"
    ]
  },
  "okdollar": {
    "only": [
      "ApiKey",
      "EncryptedKey"
    ],
    "url": [
      "interface_url"
    ]
  },
  "wave2": {
    "only": [
      "merchantId",
      "secretKey"
    ],
    "url": [
      "request_url",
      "auth_url"
    ]
  },
  "cb": {
    "only": [
      "ecommerceId",
      "subMerId",
      "authenToken",
      "merchantId"
    ],
    "url": [
      "request_url"
    ]
  },
  "mptmoney": {
    "only": [
      "merchant",
      "merchantShortCode",
      "publicKey"
    ],
    "h5": [],
    "url": [
      "redirect_url"
    ],
    "h5_url": []
  },
  "aya": {
    "only": [
      "key",
      "secret"
    ],
    "url": [
      "token_url",
      "login_url",
      "push_payment_url"
    ],
    "h5": [
      "key",
      "secret"
    ],
    "h5_url": [
      "token_url",
      "login_url",
      "push_payment_url"
    ]
  }
}
