{
  "TELENOR": {
    "url": {
      "access_token_url": "http://sandbox-apigw.mytelenor.com.mm/oauth/v1/token",
      "request_url": "http://sandbox-apigw.mytelenor.com.mm/v1/mm/en/customers/products/vas"
    },
    "mtk": {
      "clientId": "t2j8uzWAdLuAC2wVZxkAjLND1jMiFzlZ",
      "clientSecret": "DrK8oLeGxVNndKwl",
      "CP_ID": 39,
      "CP_NAME": "BIT",
      "USERNAME": "bit",
      "PASSWORD": "bit123"
    },
    "sns": {
      "clientId": "sns",
      "clientSecret": "sns",
      "CP_ID": 39,
      "CP_NAME": "BIT",
      "USERNAME": "bit",
      "PASSWORD": "bit123"
    }
  }
}